127.0.0.1 - - [31/May/2016:19:07:56 -0300] "GET / HTTP/1.1" 404 951
0:0:0:0:0:0:0:1 - - [31/May/2016:19:10:27 -0300] "GET / HTTP/1.1" 404 951
0:0:0:0:0:0:0:1 - - [31/May/2016:19:10:52 -0300] "GET /tutorialWeb/ HTTP/1.1" 404 975
0:0:0:0:0:0:0:1 - - [31/May/2016:19:10:59 -0300] "GET / HTTP/1.1" 404 951
127.0.0.1 - - [31/May/2016:19:11:17 -0300] "GET / HTTP/1.1" 404 951
127.0.0.1 - - [31/May/2016:19:12:42 -0300] "GET / HTTP/1.1" 404 951
0:0:0:0:0:0:0:1 - - [31/May/2016:19:13:11 -0300] "GET / HTTP/1.1" 404 951
127.0.0.1 - - [31/May/2016:19:15:09 -0300] "GET / HTTP/1.1" 404 951
0:0:0:0:0:0:0:1 - - [31/May/2016:19:15:49 -0300] "GET /tutorialWeb/ HTTP/1.1" 404 975
0:0:0:0:0:0:0:1 - - [31/May/2016:19:15:52 -0300] "GET /tutorialWeb/ HTTP/1.1" 404 975
127.0.0.1 - - [31/May/2016:19:16:41 -0300] "GET / HTTP/1.1" 404 951
0:0:0:0:0:0:0:1 - - [31/May/2016:19:16:46 -0300] "GET /tutorialWeb/ HTTP/1.1" 404 975
0:0:0:0:0:0:0:1 - - [31/May/2016:19:16:50 -0300] "GET /tutorialWeb/ HTTP/1.1" 404 975
0:0:0:0:0:0:0:1 - - [31/May/2016:19:17:01 -0300] "GET / HTTP/1.1" 404 951
0:0:0:0:0:0:0:1 - - [31/May/2016:19:17:38 -0300] "GET /tutorialWeb/ HTTP/1.1" 404 975
0:0:0:0:0:0:0:1 - - [31/May/2016:19:17:39 -0300] "GET /tutorialWeb/ HTTP/1.1" 404 975
0:0:0:0:0:0:0:1 - - [31/May/2016:19:17:39 -0300] "GET /tutorialWeb/ HTTP/1.1" 404 975
127.0.0.1 - - [31/May/2016:19:17:59 -0300] "GET / HTTP/1.1" 404 951
0:0:0:0:0:0:0:1 - - [31/May/2016:19:18:03 -0300] "GET /tutorialWeb/ HTTP/1.1" 500 2925
0:0:0:0:0:0:0:1 - - [31/May/2016:19:18:04 -0300] "GET /tutorialWeb/ HTTP/1.1" 500 2077
0:0:0:0:0:0:0:1 - - [31/May/2016:19:18:05 -0300] "GET /tutorialWeb/ HTTP/1.1" 500 2077
127.0.0.1 - - [31/May/2016:19:19:24 -0300] "GET / HTTP/1.1" 404 951
0:0:0:0:0:0:0:1 - - [31/May/2016:19:19:28 -0300] "GET /tutorialWeb/ HTTP/1.1" 500 2925
127.0.0.1 - - [31/May/2016:19:21:54 -0300] "GET / HTTP/1.1" 404 951
0:0:0:0:0:0:0:1 - - [31/May/2016:19:22:34 -0300] "GET /tutorialWeb/ HTTP/1.1" 500 2925
0:0:0:0:0:0:0:1 - - [31/May/2016:19:25:42 -0300] "GET / HTTP/1.1" 404 951
0:0:0:0:0:0:0:1 - - [31/May/2016:19:25:49 -0300] "GET /tutorialWeb/ HTTP/1.1" 500 2925
127.0.0.1 - - [31/May/2016:19:26:45 -0300] "GET / HTTP/1.1" 404 951
0:0:0:0:0:0:0:1 - - [31/May/2016:19:26:45 -0300] "GET /tutorialWeb/ HTTP/1.1" 500 2925
127.0.0.1 - - [31/May/2016:19:36:33 -0300] "GET / HTTP/1.1" 404 951
0:0:0:0:0:0:0:1 - - [31/May/2016:19:37:51 -0300] "GET /tutorialWeb HTTP/1.1" 302 -
0:0:0:0:0:0:0:1 - - [31/May/2016:19:37:51 -0300] "GET /tutorialWeb/ HTTP/1.1" 500 2163
127.0.0.1 - - [31/May/2016:19:39:18 -0300] "GET / HTTP/1.1" 404 951
0:0:0:0:0:0:0:1 - - [31/May/2016:19:39:21 -0300] "GET /tutorialWeb/ HTTP/1.1" 404 975
0:0:0:0:0:0:0:1 - - [31/May/2016:19:39:22 -0300] "GET /tutorialWeb/ HTTP/1.1" 404 975
0:0:0:0:0:0:0:1 - - [31/May/2016:19:39:24 -0300] "GET /tutorialWeb/ HTTP/1.1" 404 975
0:0:0:0:0:0:0:1 - - [31/May/2016:19:39:24 -0300] "GET /tutorialWeb/ HTTP/1.1" 404 975
0:0:0:0:0:0:0:1 - - [31/May/2016:19:39:36 -0300] "GET /tutorialWeb/ HTTP/1.1" 404 975
0:0:0:0:0:0:0:1 - - [31/May/2016:19:39:59 -0300] "GET /tutorialWeb/ HTTP/1.1" 404 975
0:0:0:0:0:0:0:1 - - [31/May/2016:19:39:59 -0300] "GET /tutorialWeb/ HTTP/1.1" 404 975
0:0:0:0:0:0:0:1 - - [31/May/2016:19:40:00 -0300] "GET /tutorialWeb/ HTTP/1.1" 404 975
0:0:0:0:0:0:0:1 - - [31/May/2016:19:40:00 -0300] "GET /tutorialWeb/ HTTP/1.1" 404 975
0:0:0:0:0:0:0:1 - - [31/May/2016:19:40:00 -0300] "GET /tutorialWeb/ HTTP/1.1" 404 975
0:0:0:0:0:0:0:1 - - [31/May/2016:19:40:00 -0300] "GET /tutorialWeb/ HTTP/1.1" 404 975
0:0:0:0:0:0:0:1 - - [31/May/2016:19:40:09 -0300] "GET /tutorialWeb/ HTTP/1.1" 404 975
0:0:0:0:0:0:0:1 - - [31/May/2016:19:40:10 -0300] "GET /tutorialWeb/ HTTP/1.1" 404 975
127.0.0.1 - - [31/May/2016:19:40:26 -0300] "GET / HTTP/1.1" 404 951
0:0:0:0:0:0:0:1 - - [31/May/2016:19:40:28 -0300] "GET /tutorialWeb/ HTTP/1.1" 500 2163
127.0.0.1 - - [31/May/2016:20:21:28 -0300] "GET / HTTP/1.1" 404 951
0:0:0:0:0:0:0:1 - - [31/May/2016:20:21:33 -0300] "GET /fj22-argentum-web/olaMundo.xhtml HTTP/1.1" 404 1015
0:0:0:0:0:0:0:1 - - [31/May/2016:20:21:36 -0300] "GET /fj22-argentum-web/olaMundo.xhtml HTTP/1.1" 404 1015
0:0:0:0:0:0:0:1 - - [31/May/2016:20:21:36 -0300] "GET /fj22-argentum-web/olaMundo.xhtml HTTP/1.1" 404 1015
0:0:0:0:0:0:0:1 - - [31/May/2016:20:21:37 -0300] "GET /fj22-argentum-web/olaMundo.xhtml HTTP/1.1" 404 1015
0:0:0:0:0:0:0:1 - - [31/May/2016:20:21:37 -0300] "GET /fj22-argentum-web/olaMundo.xhtml HTTP/1.1" 404 1015
0:0:0:0:0:0:0:1 - - [31/May/2016:20:21:37 -0300] "GET /fj22-argentum-web/olaMundo.xhtml HTTP/1.1" 404 1015
0:0:0:0:0:0:0:1 - - [31/May/2016:20:21:38 -0300] "GET /fj22-argentum-web/olaMundo.xhtml HTTP/1.1" 404 1015
0:0:0:0:0:0:0:1 - - [31/May/2016:20:21:58 -0300] "GET /fj22-argentum-web/olaMundo.xhtml HTTP/1.1" 404 1015
0:0:0:0:0:0:0:1 - - [31/May/2016:20:21:59 -0300] "GET /fj22-argentum-web/olaMundo.xhtml HTTP/1.1" 404 1015
0:0:0:0:0:0:0:1 - - [31/May/2016:20:22:00 -0300] "GET /fj22-argentum-web/olaMundo.xhtml HTTP/1.1" 404 1015
0:0:0:0:0:0:0:1 - - [31/May/2016:20:22:00 -0300] "GET /fj22-argentum-web/olaMundo.xhtml HTTP/1.1" 404 1015
